…
### Exercise 9

``` r
#Q: Which states have the most and fewest Denny’s locations? 
dennys %>%
  count(state) %>%
  inner_join(states, by = c("state" = "abbreviation")) %>%
  arrange(area)
```

    ## # A tibble: 51 x 4
    ##    state     n name                    area
    ##    <chr> <int> <chr>                  <dbl>
    ##  1 DC        2 District of Columbia    68.3
    ##  2 RI        5 Rhode Island          1545. 
    ##  3 DE        1 Delaware              2489. 
    ##  4 CT       12 Connecticut           5543. 
    ##  5 NJ       10 New Jersey            8723. 
    ##  6 NH        3 New Hampshire         9349. 
    ##  7 VT        2 Vermont               9616. 
    ##  8 MA        8 Massachusetts        10554. 
    ##  9 HI        6 Hawaii               10932. 
    ## 10 MD       26 Maryland             12406. 
    ## # i 41 more rows

``` r
#A: California has the most, DE has the fewest.

#Q: What about La Quinta? 
laquinta %>%
  count(state) %>%
  inner_join(states, by = c("state" = "abbreviation")) %>%
  arrange(area)
```

    ## # A tibble: 48 x 4
    ##    state     n name             area
    ##    <chr> <int> <chr>           <dbl>
    ##  1 RI        2 Rhode Island    1545.
    ##  2 CT        6 Connecticut     5543.
    ##  3 NJ        5 New Jersey      8723.
    ##  4 NH        2 New Hampshire   9349.
    ##  5 VT        2 Vermont         9616.
    ##  6 MA        6 Massachusetts  10554.
    ##  7 MD       13 Maryland       12406.
    ##  8 WV        3 West Virginia  24230.
    ##  9 SC        8 South Carolina 32020.
    ## 10 ME        1 Maine          35380.
    ## # i 38 more rows
…
